﻿{
  "Id": "WarpShield",
  "DisplayName": "Phasic Stabilizer",
  "Author": "Modding Advent Calendar 2019",
  "Version": "1.2",
  "Requires": [],
  "Enable": true,
  "AssemblyName": "WarpShield.dll",
  "EntryMethod": "MAC.WarpShield.MainPatcher.Patch",
  "Config": {}
}
