﻿{
  "Id": "ModBuilderTool",
  "DisplayName": "ModBuilderTool",
  "Author": "oldark",
  "Version": "1.0",
  "Enable": true,
  "AssemblyName": "ModBuilderTool.dll",
  "EntryMethod": "ModBuilderTool.MainPatcher.Patch",
  "Config": {}
}